{
  "17fab6a7e6df47c2c3a30ae9c6a5aaaf7d6f5da18c5e48ed9fae60204e786b7a": true,
  "f9155ac790fd02fadcdeca367b02581c04a353aa6d5aa84409a59f6804c87acd": true,
  "f7332dc4f2a5846431f24e5918f857592bfa26af272d9c5c8cc9ef93c6300d06": true,
  "e15a3c9f169303f52c84f9795ceee575a57feaea2205dd6a2cc231e6b0a54860": true,
  "89ed26367cdb9b771858e026f2eb95bfdb90e5ae943e716575327ec325f39c44": true,
  "bf78e31495ecfe3fc0004063c002eb3ce1614a566457a8b89d7b120a4c361f26": true,
  "8ca596c6bf415ec5706345590e01f7774c769d254885bb0ed3a9f75f166c424e": true
}